[
  {
      "key": "group_574881bf6b7db",
      "title": "Flex Columns",
      "fields": [
          {
              "key": "field_574881bf81a25",
              "label": "Rows",
              "name": "rows",
              "type": "flexible_content",
              "instructions": "",
              "required": 0,
              "conditional_logic": 0,
              "wrapper": {
                  "width": "",
                  "class": "",
                  "id": ""
              },
              "layouts": [
                  {
                      "key": "563b99d0e2bcf",
                      "name": "full_width_row",
                      "label": "Full Width Row",
                      "display": "block",
                      "sub_fields": [
                          {
                              "key": "field_5c9159a618363",
                              "label": "Columns",
                              "name": "",
                              "type": "tab",
                              "instructions": "",
                              "required": 0,
                              "conditional_logic": 0,
                              "wrapper": {
                                  "width": "",
                                  "class": "",
                                  "id": ""
                              },
                              "placement": "top",
                              "endpoint": 0
                          },
                          {
                              "key": "field_5bf446bc3684f",
                              "label": "Column",
                              "name": "column_1",
                              "type": "clone",
                              "instructions": "",
                              "required": 0,
                              "conditional_logic": 0,
                              "wrapper": {
                                  "width": "",
                                  "class": "",
                                  "id": ""
                              },
                              "clone": [
                                  "field_5bf431f7db5c5"
                              ],
                              "display": "seamless",
                              "layout": "block",
                              "prefix_label": 0,
                              "prefix_name": 1
                          },
                          {
                              "key": "field_5c9147d91405e",
                              "label": "Row Settings",
                              "name": "",
                              "type": "tab",
                              "instructions": "",
                              "required": 0,
                              "conditional_logic": 0,
                              "wrapper": {
                                  "width": "",
                                  "class": "",
                                  "id": ""
                              },
                              "placement": "top",
                              "endpoint": 0
                          },
                          {
                              "key": "field_5bf9cd17c2ac2",
                              "label": "Container Options",
                              "name": "container_options",
                              "type": "clone",
                              "instructions": "",
                              "required": 0,
                              "conditional_logic": 0,
                              "wrapper": {
                                  "width": "",
                                  "class": "",
                                  "id": ""
                              },
                              "clone": [
                                  "field_5bf9cc636a3f9"
                              ],
                              "display": "seamless",
                              "layout": "block",
                              "prefix_label": 0,
                              "prefix_name": 0
                          }
                      ],
                      "min": "",
                      "max": ""
                  },
                  {
                      "key": "563ba2d6767d2",
                      "name": "2_column_row",
                      "label": "2 Column Row",
                      "display": "block",
                      "sub_fields": [
                          {
                              "key": "field_5c9159eda8828",
                              "label": "Columns",
                              "name": "",
                              "type": "tab",
                              "instructions": "",
                              "required": 0,
                              "conditional_logic": 0,
                              "wrapper": {
                                  "width": "",
                                  "class": "",
                                  "id": ""
                              },
                              "placement": "top",
                              "endpoint": 0
                          },
                          {
                              "key": "field_574881bf93113",
                              "label": "Column 1",
                              "name": "column_1",
                              "type": "clone",
                              "instructions": "",
                              "required": 0,
                              "conditional_logic": 0,
                              "wrapper": {
                                  "width": "50",
                                  "class": "2col",
                                  "id": ""
                              },
                              "clone": [
                                  "field_5bf431f7db5c5"
                              ],
                              "display": "seamless",
                              "layout": "block",
                              "prefix_label": 0,
                              "prefix_name": 1
                          },
                          {
                              "key": "field_574881bf93184",
                              "label": "Column 2",
                              "name": "column_2",
                              "type": "clone",
                              "instructions": "",
                              "required": 0,
                              "conditional_logic": 0,
                              "wrapper": {
                                  "width": "50",
                                  "class": "2col",
                                  "id": ""
                              },
                              "clone": [
                                  "field_5bf431f7db5c5"
                              ],
                              "display": "seamless",
                              "layout": "block",
                              "prefix_label": 0,
                              "prefix_name": 1
                          },
                          {
                              "key": "field_5c91481414060",
                              "label": "Row Settings",
                              "name": "",
                              "type": "tab",
                              "instructions": "",
                              "required": 0,
                              "conditional_logic": 0,
                              "wrapper": {
                                  "width": "",
                                  "class": "",
                                  "id": ""
                              },
                              "placement": "top",
                              "endpoint": 0
                          },
                          {
                              "key": "field_582df0bfbe67f",
                              "label": "Container Options",
                              "name": "container_options",
                              "type": "clone",
                              "instructions": "",
                              "required": 0,
                              "conditional_logic": 0,
                              "wrapper": {
                                  "width": "",
                                  "class": "",
                                  "id": ""
                              },
                              "clone": [
                                  "group_5bf9cc5177f52"
                              ],
                              "display": "seamless",
                              "layout": "block",
                              "prefix_label": 0,
                              "prefix_name": 0
                          }
                      ],
                      "min": "",
                      "max": ""
                  },
                  {
                      "key": "563ba3c5767d3",
                      "name": "3_column_row",
                      "label": "3 Column Row",
                      "display": "block",
                      "sub_fields": [
                          {
                              "key": "field_5c9159fda8829",
                              "label": "Columns",
                              "name": "",
                              "type": "tab",
                              "instructions": "",
                              "required": 0,
                              "conditional_logic": 0,
                              "wrapper": {
                                  "width": "",
                                  "class": "",
                                  "id": ""
                              },
                              "placement": "top",
                              "endpoint": 0
                          },
                          {
                              "key": "field_574881bf93267",
                              "label": "Column 1",
                              "name": "column_1",
                              "type": "clone",
                              "instructions": "",
                              "required": 0,
                              "conditional_logic": 0,
                              "wrapper": {
                                  "width": "33.33",
                                  "class": "3col",
                                  "id": ""
                              },
                              "clone": [
                                  "field_5bf431f7db5c5"
                              ],
                              "display": "seamless",
                              "layout": "block",
                              "prefix_label": 0,
                              "prefix_name": 1
                          },
                          {
                              "key": "field_574881bf932d9",
                              "label": "Column 2",
                              "name": "column_2",
                              "type": "clone",
                              "instructions": "",
                              "required": 0,
                              "conditional_logic": 0,
                              "wrapper": {
                                  "width": "33.33",
                                  "class": "3col",
                                  "id": ""
                              },
                              "clone": [
                                  "field_5bf431f7db5c5"
                              ],
                              "display": "seamless",
                              "layout": "block",
                              "prefix_label": 0,
                              "prefix_name": 1
                          },
                          {
                              "key": "field_574881bf9334a",
                              "label": "Column 3",
                              "name": "column_3",
                              "type": "clone",
                              "instructions": "",
                              "required": 0,
                              "conditional_logic": 0,
                              "wrapper": {
                                  "width": "33.33",
                                  "class": "3col",
                                  "id": ""
                              },
                              "clone": [
                                  "field_5bf431f7db5c5"
                              ],
                              "display": "seamless",
                              "layout": "block",
                              "prefix_label": 0,
                              "prefix_name": 1
                          },
                          {
                              "key": "field_5c91486b45f2a",
                              "label": "Row Settings",
                              "name": "",
                              "type": "tab",
                              "instructions": "",
                              "required": 0,
                              "conditional_logic": 0,
                              "wrapper": {
                                  "width": "",
                                  "class": "",
                                  "id": ""
                              },
                              "placement": "top",
                              "endpoint": 0
                          },
                          {
                              "key": "field_582df0ccbe680",
                              "label": "Container Options",
                              "name": "container_options",
                              "type": "clone",
                              "instructions": "",
                              "required": 0,
                              "conditional_logic": 0,
                              "wrapper": {
                                  "width": "",
                                  "class": "",
                                  "id": ""
                              },
                              "clone": [
                                  "group_5bf9cc5177f52"
                              ],
                              "display": "seamless",
                              "layout": "block",
                              "prefix_label": 0,
                              "prefix_name": 0
                          }
                      ],
                      "min": "",
                      "max": ""
                  },
                  {
                      "key": "577426c8492ac",
                      "name": "4_column_row",
                      "label": "4 Column Row",
                      "display": "block",
                      "sub_fields": [
                          {
                              "key": "field_5c915a0ea882a",
                              "label": "Columns",
                              "name": "",
                              "type": "tab",
                              "instructions": "",
                              "required": 0,
                              "conditional_logic": 0,
                              "wrapper": {
                                  "width": "",
                                  "class": "",
                                  "id": ""
                              },
                              "placement": "top",
                              "endpoint": 0
                          },
                          {
                              "key": "field_577426c8492ad",
                              "label": "Column 1",
                              "name": "column_1",
                              "type": "clone",
                              "instructions": "",
                              "required": 0,
                              "conditional_logic": 0,
                              "wrapper": {
                                  "width": "25",
                                  "class": "4col",
                                  "id": ""
                              },
                              "clone": [
                                  "group_5bf431f7cd934"
                              ],
                              "display": "seamless",
                              "layout": "block",
                              "prefix_label": 0,
                              "prefix_name": 1
                          },
                          {
                              "key": "field_577426c8492b4",
                              "label": "Column 2",
                              "name": "column_2",
                              "type": "clone",
                              "instructions": "",
                              "required": 0,
                              "conditional_logic": 0,
                              "wrapper": {
                                  "width": "25",
                                  "class": "4col",
                                  "id": ""
                              },
                              "clone": [
                                  "group_5bf431f7cd934"
                              ],
                              "display": "seamless",
                              "layout": "block",
                              "prefix_label": 0,
                              "prefix_name": 1
                          },
                          {
                              "key": "field_57754264f5663",
                              "label": "Column 3",
                              "name": "column_3",
                              "type": "clone",
                              "instructions": "",
                              "required": 0,
                              "conditional_logic": 0,
                              "wrapper": {
                                  "width": "25",
                                  "class": "4col",
                                  "id": ""
                              },
                              "clone": [
                                  "group_5bf431f7cd934"
                              ],
                              "display": "seamless",
                              "layout": "block",
                              "prefix_label": 0,
                              "prefix_name": 1
                          },
                          {
                              "key": "field_577426ce492c2",
                              "label": "Column 4",
                              "name": "column_4",
                              "type": "clone",
                              "instructions": "",
                              "required": 0,
                              "conditional_logic": 0,
                              "wrapper": {
                                  "width": "25",
                                  "class": "4col",
                                  "id": ""
                              },
                              "clone": [
                                  "group_5bf431f7cd934"
                              ],
                              "display": "seamless",
                              "layout": "block",
                              "prefix_label": 0,
                              "prefix_name": 1
                          },
                          {
                              "key": "field_5c91488745f2c",
                              "label": "Row Settings",
                              "name": "",
                              "type": "tab",
                              "instructions": "",
                              "required": 0,
                              "conditional_logic": 0,
                              "wrapper": {
                                  "width": "",
                                  "class": "",
                                  "id": ""
                              },
                              "placement": "top",
                              "endpoint": 0
                          },
                          {
                              "key": "field_582df0e4be681",
                              "label": "Container Options",
                              "name": "container_options",
                              "type": "clone",
                              "instructions": "",
                              "required": 0,
                              "conditional_logic": 0,
                              "wrapper": {
                                  "width": "",
                                  "class": "",
                                  "id": ""
                              },
                              "clone": [
                                  "group_5bf9cc5177f52"
                              ],
                              "display": "seamless",
                              "layout": "block",
                              "prefix_label": 0,
                              "prefix_name": 0
                          }
                      ],
                      "min": "",
                      "max": ""
                  }
              ],
              "min": "",
              "max": "",
              "button_label": "Add Row"
          }
      ],
      "location": [
          [
              {
                  "param": "post_type",
                  "operator": "==",
                  "value": "page"
              }
          ],
          [
              {
                  "param": "post_type",
                  "operator": "==",
                  "value": "post"
              }
          ]
      ],
      "menu_order": 0,
      "position": "acf_after_title",
      "style": "seamless",
      "label_placement": "top",
      "instruction_placement": "label",
      "hide_on_screen": "",
      "active": true,
      "description": ""
  },
  {
      "key": "group_5bfc19fc151e4",
      "title": "Flex Columns - Column Settings",
      "fields": [
          {
              "key": "field_5c91424fa32e1",
              "label": "Column Settings",
              "name": "",
              "type": "tab",
              "instructions": "",
              "required": 0,
              "conditional_logic": 0,
              "wrapper": {
                  "width": "",
                  "class": "",
                  "id": ""
              },
              "placement": "top",
              "endpoint": 0
          },
          {
              "key": "field_5bfc19fc1a72d",
              "label": "Animate",
              "name": "animate",
              "type": "repeater",
              "instructions": "",
              "required": 0,
              "conditional_logic": 0,
              "wrapper": {
                  "width": "100",
                  "class": "",
                  "id": ""
              },
              "collapsed": "",
              "min": 1,
              "max": 1,
              "layout": "table",
              "button_label": "",
              "sub_fields": [
                  {
                      "key": "field_5bfc19fc23cdf",
                      "label": "Type",
                      "name": "type",
                      "type": "select",
                      "instructions": "",
                      "required": 0,
                      "conditional_logic": 0,
                      "wrapper": {
                          "width": "",
                          "class": "",
                          "id": ""
                      },
                      "multiple": 0,
                      "allow_null": 0,
                      "choices": {
                          "0": "No Animation",
                          "Fade": "Fade",
                          "Flip": "Flip",
                          "Slide": "Slide",
                          "Zoom": "Zoom"
                      },
                      "default_value": [],
                      "ui": 0,
                      "ajax": 0,
                      "placeholder": "",
                      "return_format": "value",
                      "disabled": 0,
                      "readonly": 0
                  },
                  {
                      "key": "field_5bfc19fc23d63",
                      "label": "Direction",
                      "name": "fade_direction",
                      "type": "select",
                      "instructions": "",
                      "required": 0,
                      "conditional_logic": [
                          [
                              {
                                  "field": "field_5bfc19fc23cdf",
                                  "operator": "==",
                                  "value": "Fade"
                              }
                          ]
                      ],
                      "wrapper": {
                          "width": "",
                          "class": "",
                          "id": ""
                      },
                      "multiple": 0,
                      "allow_null": 0,
                      "choices": {
                          "Up": "Up",
                          "Down": "Down",
                          "Left": "Left",
                          "Right": "Right",
                          "Up-Right": "Up-Right",
                          "Up-Left": "Up-Left",
                          "Down-Right": "Down-Right",
                          "Down-Left": "Down-Left"
                      },
                      "default_value": [],
                      "ui": 0,
                      "ajax": 0,
                      "placeholder": "",
                      "return_format": "value",
                      "disabled": 0,
                      "readonly": 0
                  },
                  {
                      "key": "field_5bfc19fc23de3",
                      "label": "Direction",
                      "name": "flip_direction",
                      "type": "select",
                      "instructions": "",
                      "required": 0,
                      "conditional_logic": [
                          [
                              {
                                  "field": "field_5bfc19fc23cdf",
                                  "operator": "==",
                                  "value": "Flip"
                              }
                          ]
                      ],
                      "wrapper": {
                          "width": "",
                          "class": "",
                          "id": ""
                      },
                      "multiple": 0,
                      "allow_null": 0,
                      "choices": {
                          "Up": "Up",
                          "Down": "Down",
                          "Left": "Left",
                          "Right": "Right"
                      },
                      "default_value": [],
                      "ui": 0,
                      "ajax": 0,
                      "placeholder": "",
                      "return_format": "value",
                      "disabled": 0,
                      "readonly": 0
                  },
                  {
                      "key": "field_5bfc19fc23e62",
                      "label": "Direction",
                      "name": "slide_direction",
                      "type": "select",
                      "instructions": "",
                      "required": 0,
                      "conditional_logic": [
                          [
                              {
                                  "field": "field_5bfc19fc23cdf",
                                  "operator": "==",
                                  "value": "Slide"
                              }
                          ]
                      ],
                      "wrapper": {
                          "width": "",
                          "class": "",
                          "id": ""
                      },
                      "multiple": 0,
                      "allow_null": 0,
                      "choices": {
                          "Up": "Up",
                          "Down": "Down",
                          "Left": "Left",
                          "Right": "Right"
                      },
                      "default_value": [],
                      "ui": 0,
                      "ajax": 0,
                      "placeholder": "",
                      "return_format": "value",
                      "disabled": 0,
                      "readonly": 0
                  },
                  {
                      "key": "field_5bfc19fc23ee1",
                      "label": "Direction",
                      "name": "zoom_direction",
                      "type": "select",
                      "instructions": "",
                      "required": 0,
                      "conditional_logic": [
                          [
                              {
                                  "field": "field_5bfc19fc23cdf",
                                  "operator": "==",
                                  "value": "Zoom"
                              }
                          ]
                      ],
                      "wrapper": {
                          "width": "",
                          "class": "",
                          "id": ""
                      },
                      "multiple": 0,
                      "allow_null": 0,
                      "choices": {
                          "In": "In",
                          "In-Up": "In-Up",
                          "In-Down": "In-Down",
                          "In-Left": "In-Left",
                          "In-Right": "In-Right",
                          "Out": "Out",
                          "Out-Up": "Out-Up",
                          "Out-Down": "Out-Down",
                          "Out-Left": "Out-Left",
                          "Out-Right": "Out-Right"
                      },
                      "default_value": [],
                      "ui": 0,
                      "ajax": 0,
                      "placeholder": "",
                      "return_format": "value",
                      "disabled": 0,
                      "readonly": 0
                  },
                  {
                      "key": "field_5bfc19fc23f41",
                      "label": "Duration",
                      "name": "duration",
                      "type": "number",
                      "instructions": "",
                      "required": 0,
                      "conditional_logic": [
                          [
                              {
                                  "field": "field_5bfc19fc23cdf",
                                  "operator": "!=",
                                  "value": "0"
                              }
                          ]
                      ],
                      "wrapper": {
                          "width": "",
                          "class": "",
                          "id": ""
                      },
                      "default_value": "0.4",
                      "min": 0,
                      "max": "",
                      "step": "0.1",
                      "placeholder": "",
                      "prepend": "",
                      "append": "seconds",
                      "readonly": 0,
                      "disabled": 0
                  },
                  {
                      "key": "field_5bfc19fc23fc3",
                      "label": "Delay",
                      "name": "delay",
                      "type": "number",
                      "instructions": "",
                      "required": 0,
                      "conditional_logic": [
                          [
                              {
                                  "field": "field_5bfc19fc23cdf",
                                  "operator": "!=",
                                  "value": "0"
                              }
                          ]
                      ],
                      "wrapper": {
                          "width": "",
                          "class": "",
                          "id": ""
                      },
                      "default_value": 0,
                      "min": 0,
                      "max": "",
                      "step": "0.1",
                      "placeholder": "",
                      "prepend": "",
                      "append": "seconds",
                      "readonly": 0,
                      "disabled": 0
                  }
              ]
          },
          {
              "key": "field_5bfc19fc1a6a6",
              "label": "Column Width",
              "name": "column_width",
              "type": "group",
              "instructions": "",
              "required": 0,
              "conditional_logic": 0,
              "wrapper": {
                  "width": "",
                  "class": "",
                  "id": ""
              },
              "layout": "table",
              "sub_fields": [
                  {
                      "key": "field_5bfc19fc1bb5d",
                      "label": "Widescreen Desktop",
                      "name": "widescreen_desktop",
                      "type": "select",
                      "instructions": "Extra large devices (1200px and up)",
                      "required": 0,
                      "conditional_logic": 0,
                      "wrapper": {
                          "width": "",
                          "class": "",
                          "id": ""
                      },
                      "choices": {
                          "0": "auto",
                          "12": "100%",
                          "11": "90%",
                          "10": "85%",
                          "9": "75%",
                          "8": "66%",
                          "7": "60%",
                          "6": "50%",
                          "5": "40%",
                          "4": "33%",
                          "3": "25%",
                          "2": "15%",
                          "1": "10%"
                      },
                      "default_value": [
                          0
                      ],
                      "allow_null": 0,
                      "multiple": 0,
                      "ui": 0,
                      "return_format": "value",
                      "ajax": 0,
                      "placeholder": ""
                  },
                  {
                      "key": "field_5bfc19fc1bbe0",
                      "label": "Desktop",
                      "name": "desktop",
                      "type": "select",
                      "instructions": "Large Devices (992px and up)",
                      "required": 0,
                      "conditional_logic": 0,
                      "wrapper": {
                          "width": "",
                          "class": "",
                          "id": ""
                      },
                      "choices": {
                          "0": "auto",
                          "12": "100%",
                          "11": "90%",
                          "10": "85%",
                          "9": "75%",
                          "8": "66%",
                          "7": "60%",
                          "6": "50%",
                          "5": "40%",
                          "4": "33%",
                          "3": "25%",
                          "2": "15%",
                          "1": "10%"
                      },
                      "default_value": [
                          0
                      ],
                      "allow_null": 0,
                      "multiple": 0,
                      "ui": 0,
                      "return_format": "value",
                      "ajax": 0,
                      "placeholder": ""
                  },
                  {
                      "key": "field_5bfc19fc1bc63",
                      "label": "Tablet",
                      "name": "tablet",
                      "type": "select",
                      "instructions": "Medium Devices (768px and up)",
                      "required": 0,
                      "conditional_logic": 0,
                      "wrapper": {
                          "width": "",
                          "class": "",
                          "id": ""
                      },
                      "choices": {
                          "0": "auto",
                          "12": "100%",
                          "11": "90%",
                          "10": "85%",
                          "9": "75%",
                          "8": "66%",
                          "7": "60%",
                          "6": "50%",
                          "5": "40%",
                          "4": "33%",
                          "3": "25%",
                          "2": "15%",
                          "1": "10%"
                      },
                      "default_value": [
                          0
                      ],
                      "allow_null": 0,
                      "multiple": 0,
                      "ui": 0,
                      "return_format": "value",
                      "ajax": 0,
                      "placeholder": ""
                  },
                  {
                      "key": "field_5bfc19fc1bce6",
                      "label": "Phone (Landscape)",
                      "name": "phone_landscape",
                      "type": "select",
                      "instructions": "Small Devices (576px and up)",
                      "required": 0,
                      "conditional_logic": 0,
                      "wrapper": {
                          "width": "",
                          "class": "",
                          "id": ""
                      },
                      "choices": {
                          "0": "auto",
                          "12": "100%",
                          "11": "90%",
                          "10": "85%",
                          "9": "75%",
                          "8": "66%",
                          "7": "60%",
                          "6": "50%",
                          "5": "40%",
                          "4": "33%",
                          "3": "25%",
                          "2": "15%",
                          "1": "10%"
                      },
                      "default_value": [
                          12
                      ],
                      "allow_null": 0,
                      "multiple": 0,
                      "ui": 0,
                      "return_format": "value",
                      "ajax": 0,
                      "placeholder": ""
                  },
                  {
                      "key": "field_5bfc19fc1bd67",
                      "label": "Phone (Portrait)",
                      "name": "phone_portrait",
                      "type": "select",
                      "instructions": "Extra Small Devices (less than 576px )",
                      "required": 0,
                      "conditional_logic": 0,
                      "wrapper": {
                          "width": "",
                          "class": "",
                          "id": ""
                      },
                      "choices": {
                          "0": "auto",
                          "12": "100%",
                          "11": "90%",
                          "10": "85%",
                          "9": "75%",
                          "8": "66%",
                          "7": "60%",
                          "6": "50%",
                          "5": "40%",
                          "4": "33%",
                          "3": "25%",
                          "2": "15%",
                          "1": "10%"
                      },
                      "default_value": [
                          12
                      ],
                      "allow_null": 0,
                      "multiple": 0,
                      "ui": 0,
                      "return_format": "value",
                      "ajax": 0,
                      "placeholder": ""
                  }
              ]
          },
          {
              "key": "field_5c927932aa872",
              "label": "Advanced Column Settings",
              "name": "",
              "type": "accordion",
              "instructions": "",
              "required": 0,
              "conditional_logic": 0,
              "wrapper": {
                  "width": "",
                  "class": "",
                  "id": ""
              },
              "open": 0,
              "multi_expand": 0,
              "endpoint": 0
          },
          {
              "key": "field_5ef62a8315aa7",
              "label": "Column Padding",
              "name": "column_padding",
              "type": "group",
              "instructions": "",
              "required": 0,
              "conditional_logic": 0,
              "wrapper": {
                  "width": "100",
                  "class": "",
                  "id": ""
              },
              "layout": "block",
              "sub_fields": [
                  {
                      "key": "field_5ef62aac15aa8",
                      "label": "Top",
                      "name": "top",
                      "type": "select",
                      "instructions": "",
                      "required": 0,
                      "conditional_logic": 0,
                      "wrapper": {
                          "width": "25",
                          "class": "",
                          "id": ""
                      },
                      "choices": {
                          "auto": "auto",
                          "0": "0",
                          "1": "1",
                          "2": "2",
                          "3": "3",
                          "4": "4",
                          "5": "5"
                      },
                      "default_value": "auto",
                      "allow_null": 0,
                      "multiple": 0,
                      "ui": 0,
                      "return_format": "value",
                      "ajax": 0,
                      "placeholder": ""
                  },
                  {
                      "key": "field_5ef62ac615aa9",
                      "label": "Bottom",
                      "name": "bottom",
                      "type": "select",
                      "instructions": "",
                      "required": 0,
                      "conditional_logic": 0,
                      "wrapper": {
                          "width": "25",
                          "class": "",
                          "id": ""
                      },
                      "choices": {
                          "auto": "auto",
                          "0": "0",
                          "1": "1",
                          "2": "2",
                          "3": "3",
                          "4": "4",
                          "5": "5"
                      },
                      "default_value": "auto",
                      "allow_null": 0,
                      "multiple": 0,
                      "ui": 0,
                      "return_format": "value",
                      "ajax": 0,
                      "placeholder": ""
                  },
                  {
                      "key": "field_5ef62acd15aaa",
                      "label": "Left",
                      "name": "left",
                      "type": "select",
                      "instructions": "",
                      "required": 0,
                      "conditional_logic": 0,
                      "wrapper": {
                          "width": "25",
                          "class": "",
                          "id": ""
                      },
                      "choices": {
                          "auto": "auto",
                          "0": "0",
                          "1": "1",
                          "2": "2",
                          "3": "3",
                          "4": "4",
                          "5": "5"
                      },
                      "default_value": "auto",
                      "allow_null": 0,
                      "multiple": 0,
                      "ui": 0,
                      "return_format": "value",
                      "ajax": 0,
                      "placeholder": ""
                  },
                  {
                      "key": "field_5ef62ad315aab",
                      "label": "Right",
                      "name": "right",
                      "type": "select",
                      "instructions": "",
                      "required": 0,
                      "conditional_logic": 0,
                      "wrapper": {
                          "width": "25",
                          "class": "",
                          "id": ""
                      },
                      "choices": {
                          "auto": "auto",
                          "0": "0",
                          "1": "1",
                          "2": "2",
                          "3": "3",
                          "4": "4",
                          "5": "5"
                      },
                      "default_value": "auto",
                      "allow_null": 0,
                      "multiple": 0,
                      "ui": 0,
                      "return_format": "value",
                      "ajax": 0,
                      "placeholder": ""
                  }
              ]
          },
          {
              "key": "field_5c9160bf6d49b",
              "label": "Column Order",
              "name": "order",
              "type": "group",
              "instructions": "Change the order of columns at various screen sizes.  For example set your first column to 4 in Tablet to have it appear last in a row of 4 columns when viewed at Tablet sizes",
              "required": 0,
              "conditional_logic": 0,
              "wrapper": {
                  "width": "100",
                  "class": "",
                  "id": ""
              },
              "layout": "table",
              "sub_fields": [
                  {
                      "key": "field_5c9160e26d49c",
                      "label": "Widescreen Desktop",
                      "name": "xl",
                      "type": "number",
                      "instructions": "",
                      "required": 0,
                      "conditional_logic": 0,
                      "wrapper": {
                          "width": "",
                          "class": "",
                          "id": ""
                      },
                      "default_value": "",
                      "placeholder": "",
                      "prepend": "",
                      "append": "",
                      "min": 0,
                      "max": 4,
                      "step": 1
                  },
                  {
                      "key": "field_5c9160f46d49d",
                      "label": "Desktop",
                      "name": "lg",
                      "type": "number",
                      "instructions": "",
                      "required": 0,
                      "conditional_logic": 0,
                      "wrapper": {
                          "width": "",
                          "class": "",
                          "id": ""
                      },
                      "default_value": "",
                      "placeholder": "",
                      "prepend": "",
                      "append": "",
                      "min": 0,
                      "max": 4,
                      "step": 1
                  },
                  {
                      "key": "field_5c9160fa6d49e",
                      "label": "Tablet",
                      "name": "md",
                      "type": "number",
                      "instructions": "",
                      "required": 0,
                      "conditional_logic": 0,
                      "wrapper": {
                          "width": "",
                          "class": "",
                          "id": ""
                      },
                      "default_value": "",
                      "placeholder": "",
                      "prepend": "",
                      "append": "",
                      "min": 0,
                      "max": 4,
                      "step": 1
                  },
                  {
                      "key": "field_5c9161016d49f",
                      "label": "Phone (Landscape)",
                      "name": "sm",
                      "type": "number",
                      "instructions": "",
                      "required": 0,
                      "conditional_logic": 0,
                      "wrapper": {
                          "width": "",
                          "class": "",
                          "id": ""
                      },
                      "default_value": "",
                      "placeholder": "",
                      "prepend": "",
                      "append": "",
                      "min": 0,
                      "max": 4,
                      "step": 1
                  },
                  {
                      "key": "field_5c9161396d4a0",
                      "label": "Phone (Portrait)",
                      "name": "xs",
                      "type": "number",
                      "instructions": "",
                      "required": 0,
                      "conditional_logic": 0,
                      "wrapper": {
                          "width": "",
                          "class": "",
                          "id": ""
                      },
                      "default_value": "",
                      "placeholder": "",
                      "prepend": "",
                      "append": "",
                      "min": 0,
                      "max": 4,
                      "step": 1
                  }
              ]
          },
          {
              "key": "field_5c9277e00c297",
              "label": "Column Offset",
              "name": "offset",
              "type": "group",
              "instructions": "Adds space before (to the left) of this column.\r\nNOTE: This also adds to your overall width, so ensure everything is 100% or less including your offset for each Screen size.",
              "required": 0,
              "conditional_logic": 0,
              "wrapper": {
                  "width": "",
                  "class": "",
                  "id": ""
              },
              "layout": "table",
              "sub_fields": [
                  {
                      "key": "field_5c9277e00c298",
                      "label": "Widescreen Desktop",
                      "name": "xl",
                      "type": "select",
                      "instructions": "Extra large devices (1200px and up)",
                      "required": 0,
                      "conditional_logic": 0,
                      "wrapper": {
                          "width": "",
                          "class": "",
                          "id": ""
                      },
                      "choices": {
                          "1": "10%",
                          "2": "15%",
                          "3": "25%",
                          "4": "33%",
                          "5": "40%",
                          "6": "50%",
                          "7": "60%",
                          "8": "66%",
                          "9": "75%"
                      },
                      "default_value": [],
                      "allow_null": 1,
                      "multiple": 0,
                      "ui": 0,
                      "return_format": "value",
                      "ajax": 0,
                      "placeholder": ""
                  },
                  {
                      "key": "field_5c9277e00c299",
                      "label": "Desktop",
                      "name": "lg",
                      "type": "select",
                      "instructions": "Large Devices (992px and up)",
                      "required": 0,
                      "conditional_logic": 0,
                      "wrapper": {
                          "width": "",
                          "class": "",
                          "id": ""
                      },
                      "choices": {
                          "1": "10%",
                          "2": "15%",
                          "3": "25%",
                          "4": "33%",
                          "5": "40%",
                          "6": "50%",
                          "7": "60%",
                          "8": "66%",
                          "9": "75%"
                      },
                      "default_value": [],
                      "allow_null": 1,
                      "multiple": 0,
                      "ui": 0,
                      "return_format": "value",
                      "ajax": 0,
                      "placeholder": ""
                  },
                  {
                      "key": "field_5c9277e00c29a",
                      "label": "Tablet",
                      "name": "md",
                      "type": "select",
                      "instructions": "Medium Devices (768px and up)",
                      "required": 0,
                      "conditional_logic": 0,
                      "wrapper": {
                          "width": "",
                          "class": "",
                          "id": ""
                      },
                      "choices": {
                          "1": "10%",
                          "2": "15%",
                          "3": "25%",
                          "4": "33%",
                          "5": "40%",
                          "6": "50%",
                          "7": "60%",
                          "8": "66%",
                          "9": "75%"
                      },
                      "default_value": [],
                      "allow_null": 1,
                      "multiple": 0,
                      "ui": 0,
                      "return_format": "value",
                      "ajax": 0,
                      "placeholder": ""
                  },
                  {
                      "key": "field_5c9277e00c29b",
                      "label": "Phone (Landscape)",
                      "name": "sm",
                      "type": "select",
                      "instructions": "Small Devices (576px and up)",
                      "required": 0,
                      "conditional_logic": 0,
                      "wrapper": {
                          "width": "",
                          "class": "",
                          "id": ""
                      },
                      "choices": {
                          "1": "10%",
                          "2": "15%",
                          "3": "25%",
                          "4": "33%",
                          "5": "40%",
                          "6": "50%",
                          "7": "60%",
                          "8": "66%",
                          "9": "75%"
                      },
                      "default_value": [],
                      "allow_null": 1,
                      "multiple": 0,
                      "ui": 0,
                      "return_format": "value",
                      "ajax": 0,
                      "placeholder": ""
                  },
                  {
                      "key": "field_5c9277e00c29c",
                      "label": "Phone (Portrait)",
                      "name": "xs",
                      "type": "select",
                      "instructions": "Extra Small Devices (less than 576px )",
                      "required": 0,
                      "conditional_logic": 0,
                      "wrapper": {
                          "width": "",
                          "class": "",
                          "id": ""
                      },
                      "choices": {
                          "1": "10%",
                          "2": "15%",
                          "3": "25%",
                          "4": "33%",
                          "5": "40%",
                          "6": "50%",
                          "7": "60%",
                          "8": "66%",
                          "9": "75%"
                      },
                      "default_value": [],
                      "allow_null": 1,
                      "multiple": 0,
                      "ui": 0,
                      "return_format": "value",
                      "ajax": 0,
                      "placeholder": ""
                  }
              ]
          },
          {
              "key": "field_5bfc624cc2098",
              "label": "Additional Column Classes",
              "name": "column_class",
              "type": "text",
              "instructions": "Additional CSS classes for advanced styling features.  ie. Order or Offset classes see <a href=\"https:\/\/getbootstrap.com\/docs\/4.0\/layout\/grid\/#order-classes\">Bootstrap Documentation<\/a>",
              "required": 0,
              "conditional_logic": 0,
              "wrapper": {
                  "width": "",
                  "class": "",
                  "id": ""
              },
              "default_value": "",
              "placeholder": "",
              "prepend": "",
              "append": "",
              "maxlength": ""
          }
      ],
      "location": [
          [
              {
                  "param": "post_type",
                  "operator": "==",
                  "value": "page"
              }
          ]
      ],
      "menu_order": 0,
      "position": "acf_after_title",
      "style": "seamless",
      "label_placement": "top",
      "instruction_placement": "label",
      "hide_on_screen": "",
      "active": false,
      "description": ""
  },
  {
      "key": "group_5bf9cc5177f52",
      "title": "Flex Columns - Container Options",
      "fields": [
          {
              "key": "field_5bf9cc636a3f9",
              "label": "Container Options",
              "name": "container_options",
              "type": "group",
              "instructions": "",
              "required": 0,
              "conditional_logic": 0,
              "wrapper": {
                  "width": "",
                  "class": "",
                  "id": ""
              },
              "layout": "block",
              "sub_fields": [
                  {
                      "key": "field_5bf9cc766a3fa",
                      "label": "Size",
                      "name": "size",
                      "type": "radio",
                      "instructions": "",
                      "required": 0,
                      "conditional_logic": 0,
                      "wrapper": {
                          "width": "20",
                          "class": "",
                          "id": ""
                      },
                      "choices": {
                          "1": "Contained",
                          "0": "Full Width (Fluid)"
                      },
                      "allow_null": 0,
                      "other_choice": 0,
                      "default_value": 1,
                      "layout": "horizontal",
                      "return_format": "value",
                      "save_other_choice": 0
                  },
                  {
                      "key": "field_5c9143620c7ce",
                      "label": "Padding Space",
                      "name": "padding",
                      "type": "group",
                      "instructions": "",
                      "required": 0,
                      "conditional_logic": 0,
                      "wrapper": {
                          "width": "40",
                          "class": "",
                          "id": ""
                      },
                      "layout": "block",
                      "sub_fields": [
                          {
                              "key": "field_5c91436f0c7cf",
                              "label": "Top",
                              "name": "top",
                              "type": "select",
                              "instructions": "",
                              "required": 0,
                              "conditional_logic": 0,
                              "wrapper": {
                                  "width": "25",
                                  "class": "",
                                  "id": ""
                              },
                              "choices": {
                                  "auto": "auto",
                                  "0": "0",
                                  "1": "1",
                                  "2": "2",
                                  "3": "3",
                                  "4": "4",
                                  "5": "5"
                              },
                              "default_value": [
                                  "auto"
                              ],
                              "allow_null": 0,
                              "multiple": 0,
                              "ui": 0,
                              "return_format": "value",
                              "ajax": 0,
                              "placeholder": ""
                          },
                          {
                              "key": "field_5c9143990c7d0",
                              "label": "Bottom",
                              "name": "bottom",
                              "type": "select",
                              "instructions": "",
                              "required": 0,
                              "conditional_logic": 0,
                              "wrapper": {
                                  "width": "25",
                                  "class": "",
                                  "id": ""
                              },
                              "choices": {
                                  "auto": "auto",
                                  "0": "0",
                                  "1": "1",
                                  "2": "2",
                                  "3": "3",
                                  "4": "4",
                                  "5": "5"
                              },
                              "default_value": [
                                  "auto"
                              ],
                              "allow_null": 0,
                              "multiple": 0,
                              "ui": 0,
                              "return_format": "value",
                              "ajax": 0,
                              "placeholder": ""
                          },
                          {
                              "key": "field_5c9143ce0c7d2",
                              "label": "Left",
                              "name": "left",
                              "type": "select",
                              "instructions": "",
                              "required": 0,
                              "conditional_logic": 0,
                              "wrapper": {
                                  "width": "25",
                                  "class": "",
                                  "id": ""
                              },
                              "choices": {
                                  "auto": "auto",
                                  "0": "0",
                                  "1": "1",
                                  "2": "2",
                                  "3": "3",
                                  "4": "4",
                                  "5": "5"
                              },
                              "default_value": [
                                  "auto"
                              ],
                              "allow_null": 0,
                              "multiple": 0,
                              "ui": 0,
                              "return_format": "value",
                              "ajax": 0,
                              "placeholder": ""
                          },
                          {
                              "key": "field_5c9143d60c7d3",
                              "label": "Right",
                              "name": "right",
                              "type": "select",
                              "instructions": "",
                              "required": 0,
                              "conditional_logic": 0,
                              "wrapper": {
                                  "width": "25",
                                  "class": "",
                                  "id": ""
                              },
                              "choices": {
                                  "auto": "auto",
                                  "0": "0",
                                  "1": "1",
                                  "2": "2",
                                  "3": "3",
                                  "4": "4",
                                  "5": "5"
                              },
                              "default_value": [
                                  "auto"
                              ],
                              "allow_null": 0,
                              "multiple": 0,
                              "ui": 0,
                              "return_format": "value",
                              "ajax": 0,
                              "placeholder": ""
                          }
                      ]
                  },
                  {
                      "key": "field_5bf9cce06a3fc",
                      "label": "Background Color",
                      "name": "background_color",
                      "type": "radio",
                      "instructions": "",
                      "required": 0,
                      "conditional_logic": 0,
                      "wrapper": {
                          "width": "40",
                          "class": "",
                          "id": ""
                      },
                      "choices": {
                          "no-bg": "None",
                          "primary-bg": "Primary <span style=\"display:inline-block;width:15px;height:15px;background:#6a4e3f;\"><\/span>",
                          "secondary-bg": "Secondary <span style=\"display:inline-block;width:15px;height:15px;background:#ad9f92;\"><\/span>",
                          "tertiary-bg": "Tertiary <span style=\"display:inline-block;width:15px;height:15px;background:#621a1c;\"><\/span>",
                          "dark-bg": "Dark <span style=\"display:inline-block;width:15px;height:15px;background:#322110;\"><\/span>"
                      },
                      "allow_null": 0,
                      "other_choice": 0,
                      "default_value": "no-bg",
                      "layout": "horizontal",
                      "return_format": "value",
                      "save_other_choice": 0
                  },
                  {
                      "key": "field_5c916afacadd5",
                      "label": "Additional Container Classes",
                      "name": "additional_classes",
                      "type": "text",
                      "instructions": "",
                      "required": 0,
                      "conditional_logic": 0,
                      "wrapper": {
                          "width": "50",
                          "class": "",
                          "id": ""
                      },
                      "default_value": "",
                      "placeholder": "",
                      "prepend": "",
                      "append": "",
                      "maxlength": ""
                  },
                  {
                      "key": "field_5c916ddfb891e",
                      "label": "Additional Row Classes",
                      "name": "additional_row_classes",
                      "type": "text",
                      "instructions": "",
                      "required": 0,
                      "conditional_logic": 0,
                      "wrapper": {
                          "width": "50",
                          "class": "",
                          "id": ""
                      },
                      "default_value": "",
                      "placeholder": "",
                      "prepend": "",
                      "append": "",
                      "maxlength": ""
                  }
              ]
          }
      ],
      "location": [
          [
              {
                  "param": "post_type",
                  "operator": "==",
                  "value": "post"
              }
          ]
      ],
      "menu_order": 0,
      "position": "normal",
      "style": "default",
      "label_placement": "top",
      "instruction_placement": "label",
      "hide_on_screen": "",
      "active": false,
      "description": ""
  },
  {
      "key": "group_5bf431f7cd934",
      "title": "Flex Columns - Layout Blocks",
      "fields": [
          {
              "key": "field_5bf431f7db5c5",
              "label": "Column",
              "name": "block",
              "type": "flexible_content",
              "instructions": "",
              "required": 0,
              "conditional_logic": 0,
              "wrapper": {
                  "width": "",
                  "class": "",
                  "id": ""
              },
              "layouts": {
                  "563b99d0e2bcf": {
                      "key": "563b99d0e2bcf",
                      "name": "content",
                      "label": "Content",
                      "display": "block",
                      "sub_fields": [
                          {
                              "key": "field_5c91449aa12e0",
                              "label": "Content",
                              "name": "",
                              "type": "tab",
                              "instructions": "",
                              "required": 0,
                              "conditional_logic": 0,
                              "wrapper": {
                                  "width": "",
                                  "class": "",
                                  "id": ""
                              },
                              "placement": "top",
                              "endpoint": 0
                          },
                          {
                              "key": "field_5bf431f7e33b2",
                              "label": "Content",
                              "name": "content",
                              "type": "wysiwyg",
                              "instructions": "",
                              "required": 0,
                              "conditional_logic": 0,
                              "wrapper": {
                                  "width": "",
                                  "class": "",
                                  "id": ""
                              },
                              "default_value": "",
                              "tabs": "all",
                              "toolbar": "full",
                              "media_upload": 1,
                              "delay": 0
                          },
                          {
                              "key": "field_5bf431f7e342a",
                              "label": "List Layout",
                              "name": "list_layout",
                              "type": "select",
                              "instructions": "Split your bullet or numbered lists within the editor above into even columns",
                              "required": 0,
                              "conditional_logic": 0,
                              "wrapper": {
                                  "width": "",
                                  "class": "",
                                  "id": ""
                              },
                              "choices": {
                                  "1": "Normal List",
                                  "2": "2 Column List",
                                  "3": "3 Column List",
                                  "4": "4 Column List",
                                  "5": "5 Column List",
                                  "6": "6 Column List"
                              },
                              "default_value": [
                                  1
                              ],
                              "allow_null": 0,
                              "multiple": 0,
                              "ui": 0,
                              "ajax": 0,
                              "return_format": "value",
                              "placeholder": ""
                          },
                          {
                              "key": "field_5bf44783a66b8",
                              "label": "Column Width & Animate",
                              "name": "column_width",
                              "type": "clone",
                              "instructions": "",
                              "required": 0,
                              "conditional_logic": 0,
                              "wrapper": {
                                  "width": "",
                                  "class": "",
                                  "id": ""
                              },
                              "clone": [
                                  "group_5bfc19fc151e4"
                              ],
                              "display": "seamless",
                              "layout": "block",
                              "prefix_label": 0,
                              "prefix_name": 0
                          }
                      ],
                      "min": "",
                      "max": ""
                  }
              },
              "button_label": "Add Block",
              "min": "",
              "max": 1
          }
      ],
      "location": [
          [
              {
                  "param": "post_type",
                  "operator": "==",
                  "value": "page"
              }
          ],
          [
              {
                  "param": "post_type",
                  "operator": "==",
                  "value": "post"
              }
          ]
      ],
      "menu_order": 0,
      "position": "acf_after_title",
      "style": "seamless",
      "label_placement": "top",
      "instruction_placement": "label",
      "hide_on_screen": "",
      "active": false,
      "description": ""
  }
]